<?xml version="1.0" encoding="UTF-8" standalone="yes"?>
                <gpx version="1.1" creator="TomTom.2014 with Barometer" xsi:schemaLocation="http://www.topografix.com/GPX/1/1 http://www.topografix.com/GPX/1/1/gpx.xsd" xmlns="http://www.topografix.com/GPX/1/1" xmlns:gpxtpx="http://www.garmin.com/xmlschemas/TrackPointExtension/v1" xmlns:xsi="http://www.w3.org/2001/XMLSchema-instance">
                    <metadata>
                        <name>Activity</name>
                    </metadata>
                    <trk>
                        <name>Running</name>
                        <trkseg>
                            <trkpt lat="49.328515" lon="-0.389206">
                                <ele>9.8</ele>
                                <time>1970-01-01T00:01:22.000Z</time>
                                <extensions>
                                    <gpxtpx:TrackPointExtension>
                                        <gpxtpx:hr>99</gpxtpx:hr>
                                    </gpxtpx:TrackPointExtension>
                                </extensions>
                            </trkpt>
                            <trkpt lat="49.328519" lon="-0.389189">
                                <ele>9.8</ele>
                                <time>1970-01-01T00:02:23.000Z</time>
                                <extensions>
                                    <gpxtpx:TrackPointExtension>
                                        <gpxtpx:hr>105</gpxtpx:hr>
                                    </gpxtpx:TrackPointExtension>
                                </extensions>
                            </trkpt>
                            <trkpt lat="49.328529" lon="-0.389173">
                                <ele>9.8</ele>
                                <time>1970-01-01T00:04:24.000Z</time>
                                <extensions>
                                    <gpxtpx:TrackPointExtension>
                                        <gpxtpx:hr>107</gpxtpx:hr>
                                    </gpxtpx:TrackPointExtension>
                                </extensions>
                            </trkpt>
                            <trkpt lat="49.328543" lon="-0.389156">
                                <ele>9.7</ele>
                                <time>1970-01-01T00:08:25.000Z</time>
                                <extensions>
                                    <gpxtpx:TrackPointExtension>
                                        <gpxtpx:hr>109</gpxtpx:hr>
                                    </gpxtpx:TrackPointExtension>
                                </extensions>
                            </trkpt>
                        </trkseg>
                    </trk>
                </gpx>
